ERA_21_HA/era2122h12-ge75vov/advanced_tb_ref.vcd
$date
  Wed Jan 19 10:59:50 2022
$end
$version
  GHDL v0
$end
$timescale
  1 fs
$end
$var reg 1 ! clk_in $end
$var reg 1 " notaus_in $end
$var reg 16 # temp_in[15:0] $end
$var reg 1 $ p1_imp $end
$var reg 1 % p2_imp $end
$scope module heizung_component $end
$var reg 1 & clk $end
$var reg 1 ' notaus $end
$var reg 16 ( temp[15:0] $end
$var reg 1 ) p1 $end
$var reg 1 * p2 $end
$var reg 3 + z[2:0] $end
$upscope $end
$enddefinitions $end
#0
0!
0"
b0001100000000000 #
0$
0%
0&
0'
b0001100000000000 (
0)
0*
b000 +
#500000000000000
1!
1&
#1000000000000000
0!
0&
#1500000000000000
1!
1&
#2000000000000000
0!
0&
#2500000000000000
1!
b0001001100000000 #
1$
1&
b0001001100000000 (
1)
b100 +
#3000000000000000
0!
0&
#3500000000000000
1!
1&
b101 +
#4000000000000000
0!
0&
#4500000000000000
1!
1&
#5000000000000000
0!
0&
#5500000000000000
1!
b0001100000000000 #
0$
1&
b0001100000000000 (
0)
b000 +
#6000000000000000
0!
0&
#6500000000000000
1!
1&
#7000000000000000
0!
0&
#7500000000000000
1!
1&
#8000000000000000
0!
0&
#8500000000000000
1!
1&
#9000000000000000
0!
0&
#9500000000000000
1!
b0001000100000000 #
1$
1%
1&
b0001000100000000 (
1)
1*
b110 +
#10000000000000000
0!
0&
#10500000000000000
1!
1&
b111 +
#11000000000000000
0!
0&
#11500000000000000
1!
1&
#12000000000000000
0!
0&
#12500000000000000
1!
b0001100000000000 #
0$
0%
1&
b0001100000000000 (
0)
0*
b000 +
#13000000000000000
0!
0&
#13500000000000000
1!
1&
#14000000000000000
0!
0&
#14500000000000000
1!
1&
#15000000000000000
0!
0&
#15500000000000000
1!
1&
#16000000000000000
0!
0&
#16500000000000000
1!
b0001001100000000 #
1$
1&
b0001001100000000 (
1)
b100 +
#17000000000000000
0!
0&
#17500000000000000
1!
1&
b101 +
#18000000000000000
0!
0&
#18500000000000000
1!
1&
#19000000000000000
0!
0&
#19500000000000000
1!
b0001000100000000 #
1%
1&
b0001000100000000 (
1*
b110 +
#20000000000000000
0!
0&
#20500000000000000
1!
1&
b111 +
#21000000000000000
0!
0&
#21500000000000000
1!
1&
#22000000000000000
0!
0&
#22500000000000000
1!
b0001100000000000 #
0$
0%
1&
b0001100000000000 (
0)
0*
b000 +
#23000000000000000
0!
0&
#23500000000000000
1!
1&
#24000000000000000
0!
0&
#24500000000000000
1!
1&
#25000000000000000
0!
0&
#25500000000000000
1!
1&
#26000000000000000
0!
0&
#26500000000000000
1!
b0001001100000000 #
1$
1&
b0001001100000000 (
1)
b100 +
#27000000000000000
0!
0&
#27500000000000000
1!
1&
b101 +
#28000000000000000
0!
0&
#28500000000000000
1!
1&
#29000000000000000
0!
0&
#29500000000000000
1!
b0001000100000000 #
1%
1&
b0001000100000000 (
1*
b110 +
#30000000000000000
0!
0&
#30500000000000000
1!
1&
b111 +
#31000000000000000
0!
0&
#31500000000000000
1!
1&
#32000000000000000
0!
0&
#32500000000000000
1!
b0001100000000000 #
0$
0%
1&
b0001100000000000 (
0)
0*
b000 +
#33000000000000000
0!
0&
#33500000000000000
1!
1&
#34000000000000000
0!
0&
#34500000000000000
1!
1&
#35000000000000000
0!
0&
#35500000000000000
1!
1&
#36000000000000000
0!
0&
#36500000000000000
1!
b0001010000000000 #
1&
b0001010000000000 (
#37000000000000000
0!
0&
#37500000000000000
1!
1&
#38000000000000000
0!
0&
#38500000000000000
1!
1&
#39000000000000000
0!
0&
#39500000000000000
1!
b0001001111111111 #
1$
1&
b0001001111111111 (
1)
b100 +
#40000000000000000
0!
0&
#40500000000000000
1!
1&
b101 +
#41000000000000000
0!
0&
#41500000000000000
1!
1&
#42000000000000000
0!
0&
#42500000000000000
1!
b0001100000000000 #
0$
1&
b0001100000000000 (
0)
b000 +
#43000000000000000
0!
0&
#43500000000000000
1!
1&
#44000000000000000
0!
0&
#44500000000000000
1!
1&
#45000000000000000
0!
0&
#45500000000000000
1!
1&
#46000000000000000
0!
0&
#46500000000000000
1!
b0001001000000000 #
1$
1&
b0001001000000000 (
1)
b100 +
#47000000000000000
0!
0&
#47500000000000000
1!
1&
b101 +
#48000000000000000
0!
0&
#48500000000000000
1!
1&
#49000000000000000
0!
0&
#49500000000000000
1!
b0001000111111111 #
1%
1&
b0001000111111111 (
1*
b110 +
#50000000000000000
0!
0&
#50500000000000000
1!
1&
b111 +
#51000000000000000
0!
0&
#51500000000000000
1!
1&
#52000000000000000
0!
0&
#52500000000000000
1!
b0001100000000000 #
0$
0%
1&
b0001100000000000 (
0)
0*
b000 +
#53000000000000000
0!
0&
#53500000000000000
1!
1&
#54000000000000000
0!
0&
#54500000000000000
1!
1&
#55000000000000000
0!
0&
#55500000000000000
1!
1&
#56000000000000000
0!
0&
#56500000000000000
1!
b0111111111111111 #
1&
b0111111111111111 (
#57000000000000000
0!
0&
#57500000000000000
1!
1&
#58000000000000000
0!
0&
#58500000000000000
1!
1&
#59000000000000000
0!
0&
#59500000000000000
1!
b0001100000000000 #
1&
b0001100000000000 (
#60000000000000000
0!
0&
#60500000000000000
1!
1&
#61000000000000000
0!
0&
#61500000000000000
1!
1&
#62000000000000000
0!
0&
#62500000000000000
1!
1&
#63000000000000000
0!
0&
#63500000000000000
1!
b0001001100000000 #
1$
1&
b0001001100000000 (
1)
b100 +
#64000000000000000
0!
0&
#64500000000000000
1!
b0001100000000000 #
1&
b0001100000000000 (
b101 +
#65000000000000000
0!
0&
#65500000000000000
1!
0$
1&
0)
b000 +
#66000000000000000
0!
0&
#66500000000000000
1!
1&
#67000000000000000
0!
0&
#67500000000000000
1!
1&
#68000000000000000
0!
0&
#68500000000000000
1!
b0001000100000000 #
1$
1%
1&
b0001000100000000 (
1)
1*
b110 +
#69000000000000000
0!
0&
#69500000000000000
1!
b0001100000000000 #
1&
b0001100000000000 (
b111 +
#70000000000000000
0!
0&
#70500000000000000
1!
0$
0%
1&
0)
0*
b000 +
#71000000000000000
0!
0&
#71500000000000000
1!
1&
#72000000000000000
0!
0&
#72500000000000000
1!
1&
#73000000000000000
0!
0&
#73500000000000000
1!
b0001001100000000 #
1$
1&
b0001001100000000 (
1)
b100 +
#74000000000000000
0!
0&
#74500000000000000
1!
1&
b101 +
#75000000000000000
0!
0&
#75500000000000000
1!
1&
#76000000000000000
0!
0&
#76500000000000000
1!
b0001000100000000 #
1%
1&
b0001000100000000 (
1*
b110 +
#77000000000000000
0!
0&
#77500000000000000
1!
b0001100000000000 #
1&
b0001100000000000 (
b111 +
#78000000000000000
0!
0&
#78500000000000000
1!
0$
0%
1&
0)
0*
b000 +
#79000000000000000
0!
0&
#79500000000000000
1!
1&
#80000000000000000
0!
0&
#80500000000000000
1!
1&
#81000000000000000
0!
0&
#81500000000000000
1!
b0001001100000000 #
1$
1&
b0001001100000000 (
1)
b100 +
#82000000000000000
0!
0&
#82500000000000000
1!
1&
b101 +
#83000000000000000
0!
0&
#83500000000000000
1!
1"
0$
1&
1'
0)
b000 +
#84000000000000000
0!
0&
#84500000000000000
1!
b0001100000000000 #
1&
b0001100000000000 (
#85000000000000000
0!
0&
#85500000000000000
1!
0"
1&
0'
#86000000000000000
0!
0&
#86500000000000000
1!
1&
#87000000000000000
0!
0&
#87500000000000000
1!
1&
#88000000000000000
0!
0&
#88500000000000000
1!
1&
#89000000000000000
0!
0&
#89500000000000000
1!
b0001000100000000 #
1$
1%
1&
b0001000100000000 (
1)
1*
b110 +
#90000000000000000
0!
0&
#90500000000000000
1!
1&
b111 +
#91000000000000000
0!
0&
#91500000000000000
1!
1"
0$
0%
1&
1'
0)
0*
b000 +
#92000000000000000
0!
0&
#92500000000000000
1!
b0001100000000000 #
1&
b0001100000000000 (
#93000000000000000
0!
0&
#93500000000000000
1!
0"
1&
0'
#94000000000000000
0!
0&
#94500000000000000
1!
1&
#95000000000000000
0!
0&
#95500000000000000
1!
1&
#96000000000000000
0!
0&
#96500000000000000
1!
1&
#97000000000000000
0!
0&
#97500000000000000
1!
1"
1&
1'
#98000000000000000
0!
0&
#98500000000000000
1!
b0001001100000000 #
1&
b0001001100000000 (
#99000000000000000
0!
0&
#99500000000000000
1!
0"
1$
1&
0'
1)
b100 +
#100000000000000000
0!
0&
#100500000000000000
1!
b0001100000000000 #
1&
b0001100000000000 (
b101 +
#101000000000000000
0!
0&
#101500000000000000
1!
0$
1&
0)
b000 +
#102000000000000000
0!
0&
#102500000000000000
1!
1&
#103000000000000000
0!
0&
#103500000000000000
1!
1&
#104000000000000000
0!
0&
#104500000000000000
1!
1"
1&
1'
#105000000000000000
0!
0&
#105500000000000000
1!
b0001000100000000 #
1&
b0001000100000000 (
#106000000000000000
0!
0&
#106500000000000000
1!
0"
1$
1%
1&
0'
1)
1*
b110 +
#107000000000000000
0!
0&
#107500000000000000
1!
b0001100000000000 #
1&
b0001100000000000 (
b111 +
#108000000000000000
0!
0&
#108500000000000000
1!
0$
0%
1&
0)
0*
b000 +
#109000000000000000
0!
0&
#109500000000000000
1!
1&
#110000000000000000
0!
0&
#110500000000000000
1!
1&
#111000000000000000
0!
0&
#111500000000000000
1!
b0001001100000000 #
1$
1&
b0001001100000000 (
1)
b100 +
#112000000000000000
0!
0&
#112500000000000000
1!
1&
b101 +
#113000000000000000
0!
0&
#113500000000000000
1!
1"
0$
1&
1'
0)
b000 +
#114000000000000000
0!
0&
#114500000000000000
1!
0"
1$
1&
0'
1)
b100 +
#115000000000000000
0!
0&
#115500000000000000
1!
1&
b101 +
#116000000000000000
0!
0&
#116500000000000000
1!
1&
#117000000000000000
0!
0&
#117500000000000000
1!
b0001100000000000 #
0$
1&
b0001100000000000 (
0)
b000 +
#118000000000000000
0!
0&
#118500000000000000
1!
1&
#119000000000000000
0!
0&
#119500000000000000
1!
1&
#120000000000000000
0!
0&
#120500000000000000
1!
1&
#121000000000000000
0!
0&
#121500000000000000
1!
b0001000100000000 #
1$
1%
1&
b0001000100000000 (
1)
1*
b110 +
#122000000000000000
0!
0&
#122500000000000000
1!
1&
b111 +
#123000000000000000
0!
0&
#123500000000000000
1!
1"
0$
0%
1&
1'
0)
0*
b000 +
#124000000000000000
0!
0&
#124500000000000000
1!
0"
1$
1%
1&
0'
1)
1*
b110 +
#125000000000000000
0!
0&
#125500000000000000
1!
1&
b111 +
#126000000000000000
0!
0&
#126500000000000000
1!
1&
#127000000000000000
0!
0&
#127500000000000000
1!
b0001100000000000 #
0$
0%
1&
b0001100000000000 (
0)
0*
b000 +
#128000000000000000
0!
0&
#128500000000000000
1!
1&
#129000000000000000
0!
0&
#129500000000000000
1!
1&
#130000000000000000
0!
0&
#130500000000000000
1!
1&
#131000000000000000
0!
0&
#131500000000000000
1!
b0001001100000000 #
1$
1&
b0001001100000000 (
1)
b100 +
#132000000000000000
0!
0&
#132500000000000000
1!
1&
b101 +
#133000000000000000
0!
0&
#133500000000000000
1!
1"
0$
1&
1'
0)
b000 +
#134000000000000000
0!
0&
#134500000000000000
1!
0"
1$
1&
0'
1)
b100 +
#135000000000000000
0!
0&
#135500000000000000
1!
b0001100000000000 #
1&
b0001100000000000 (
b101 +
#136000000000000000
0!
0&
#136500000000000000
1!
0$
1&
0)
b000 +
#137000000000000000
0!
0&
#137500000000000000
1!
1&
#138000000000000000
0!
0&
#138500000000000000
1!
1&
#139000000000000000
0!
0&
#139500000000000000
1!
b0001000100000000 #
1$
1%
1&
b0001000100000000 (
1)
1*
b110 +
#140000000000000000
0!
0&
#140500000000000000
1!
1&
b111 +
#141000000000000000
0!
0&
#141500000000000000
1!
1"
0$
0%
1&
1'
0)
0*
b000 +
#142000000000000000
0!
0&
#142500000000000000
1!
0"
1$
1%
1&
0'
1)
1*
b110 +
#143000000000000000
0!
0&
#143500000000000000
1!
b0001100000000000 #
1&
b0001100000000000 (
b111 +
#144000000000000000
0!
0&
#144500000000000000
1!
0$
0%
1&
0)
0*
b000 +
#145000000000000000
0!
0&
#145500000000000000
1!
1&
#146000000000000000
0!
0&
#146500000000000000
1!
1&
#147000000000000000
0!
0&
#147500000000000000
1!
b0001001100000000 #
1$
1&
b0001001100000000 (
1)
b100 +
#148000000000000000
0!
0&
#148500000000000000
1!
1&
b101 +
#149000000000000000
0!
0&
#149500000000000000
1!
1&
#149700000000000000
1"
0$
1'
0)
b000 +
#149800000000000000
0"
0'
#150000000000000000
0!
0&
#150500000000000000
1!
1$
1&
1)
b100 +
#151000000000000000
0!
0&
#151500000000000000
1!
1&
b101 +
#152000000000000000
0!
0&
#152500000000000000
1!
b0001100000000000 #
0$
1&
b0001100000000000 (
0)
b000 +
#153000000000000000
0!
0&
#153500000000000000
1!
1&
#154000000000000000
0!
0&
#154500000000000000
1!
1&
#155000000000000000
0!
0&
#155500000000000000
1!
1&
#156000000000000000
0!
0&
#156500000000000000
1!
b0001000100000000 #
1$
1%
1&
b0001000100000000 (
1)
1*
b110 +
#157000000000000000
0!
0&
#157500000000000000
1!
1&
b111 +
#158000000000000000
0!
0&
#158500000000000000
1!
1&
#159000000000000000
0!
0&
#159100000000000000
1"
0$
0%
1'
0)
0*
b000 +
#159200000000000000
0"
0'
#159500000000000000
1!
1$
1%
1&
1)
1*
b110 +
#160000000000000000
0!
0&
#160500000000000000
1!
1&
b111 +
#161000000000000000
0!
0&
#161500000000000000
1!
b0001100000000000 #
0$
0%
1&
b0001100000000000 (
0)
0*
b000 +
#162000000000000000
0!
0&
#162500000000000000
1!
1&
#163000000000000000
0!
0&
#163500000000000000
1!
1&
#164000000000000000
0!
0&
#164500000000000000
1!
1&
#165000000000000000
0!
0&
#165500000000000000
1!
b0001001100000000 #
1$
1&
b0001001100000000 (
1)
b100 +
#165700000000000000
1"
0$
1'
0)
b000 +
#165800000000000000
0"
0'
#166000000000000000
0!
0&
#166500000000000000
1!
b0001100000000000 #
1&
b0001100000000000 (
#167000000000000000
0!
0&
#167500000000000000
1!
1&
#168000000000000000
0!
0&
#168500000000000000
1!
1&
#169000000000000000
0!
0&
#169500000000000000
1!
1&
#170000000000000000
0!
0&
#170500000000000000
1!
b0001000100000000 #
1$
1%
1&
b0001000100000000 (
1)
1*
b110 +
#171000000000000000
0!
0&
#171100000000000000
1"
0$
0%
1'
0)
0*
b000 +
#171200000000000000
0"
0'
#171500000000000000
1!
b0001100000000000 #
1&
b0001100000000000 (
#172000000000000000
0!
0&
#172500000000000000
1!
1&
#173000000000000000
0!
0&
#173500000000000000
1!
1&
#174000000000000000
0!
0&
#174500000000000000
1!
1&
#175000000000000000
0!
0&
#175500000000000000
1!
1&
#176000000000000000
0!
0&
#176200000000000000
1"
1'
#176500000000000000
1!
b0001001100000000 #
1&
b0001001100000000 (
#176800000000000000
0"
0'
#177000000000000000
0!
0&
#177500000000000000
1!
b0001100000000000 #
1&
b0001100000000000 (
#178000000000000000
0!
0&
#178500000000000000
1!
1&
#179000000000000000
0!
0&
#179500000000000000
1!
1&
#180000000000000000
0!
0&
#180500000000000000
1!
1&
#181000000000000000
0!
0&
#181500000000000000
1!
1&
#182000000000000000
0!
0&
#182500000000000000
1!
1&
#183000000000000000
0!
0&
#183400000000000000
1"
1'
#183500000000000000
1!
b0001000100000000 #
1&
b0001000100000000 (
#183600000000000000
0"
0'
#184000000000000000
0!
0&
#184500000000000000
1!
b0001100000000000 #
1&
b0001100000000000 (
