ERA_21_HA/era2122h12-ge75vov/basic_tb_ref.vcd
$date
  Wed Jan 19 10:59:49 2022
$end
$version
  GHDL v0
$end
$timescale
  1 fs
$end
$var reg 1 ! clk_in $end
$var reg 1 " notaus_in $end
$var reg 16 # temp_in[15:0] $end
$var reg 1 $ p1_imp $end
$var reg 1 % p2_imp $end
$scope module heizung_component $end
$var reg 1 & clk $end
$var reg 1 ' notaus $end
$var reg 16 ( temp[15:0] $end
$var reg 1 ) p1 $end
$var reg 1 * p2 $end
$var reg 3 + z[2:0] $end
$upscope $end
$enddefinitions $end
#0
0!
0"
b0001100000000000 #
0$
0%
0&
0'
b0001100000000000 (
0)
0*
b000 +
#500000000000000
1!
1&
#1000000000000000
0!
0&
#1500000000000000
1!
1&
#2000000000000000
0!
0&
#2500000000000000
1!
1&
#3000000000000000
0!
0&
#3500000000000000
1!
1&
#4000000000000000
0!
0&
#4500000000000000
1!
1&
#5000000000000000
0!
0&
#5500000000000000
1!
b0001001100000000 #
1$
1&
b0001001100000000 (
1)
b100 +
#6000000000000000
0!
0&
#6500000000000000
1!
1&
b101 +
#7000000000000000
0!
0&
#7500000000000000
1!
1&
#8000000000000000
0!
0&
#8500000000000000
1!
1&
#9000000000000000
0!
0&
#9500000000000000
1!
1&
#10000000000000000
0!
0&
#10500000000000000
1!
b0001000000000000 #
1%
1&
b0001000000000000 (
1*
b110 +
#11000000000000000
0!
0&
#11500000000000000
1!
1&
b111 +
#12000000000000000
0!
0&
#12500000000000000
1!
b0001001100000000 #
1&
b0001001100000000 (
#13000000000000000
0!
0&
#13500000000000000
1!
1&
#14000000000000000
0!
0&
#14500000000000000
1!
1&
#15000000000000000
0!
0&
#15500000000000000
1!
1&
#16000000000000000
0!
0&
#16500000000000000
1!
1&
#17000000000000000
0!
0&
#17500000000000000
1!
b0001100000000000 #
0$
0%
1&
b0001100000000000 (
0)
0*
b000 +
#18000000000000000
0!
0&
#18500000000000000
1!
1&
#19000000000000000
0!
0&
#19500000000000000
1!
1&
#20000000000000000
0!
0&
#20500000000000000
1!
1&
#21000000000000000
0!
0&
#21500000000000000
1!
1&
#22000000000000000
0!
0&
#22500000000000000
1!
b0001001000000001 #
1$
1&
b0001001000000001 (
1)
b100 +
#23000000000000000
0!
0&
#23500000000000000
1!
1&
b101 +
#24000000000000000
0!
0&
#24500000000000000
1!
1&
#25000000000000000
0!
0&
#25500000000000000
1!
1&
#26000000000000000
0!
0&
#26500000000000000
1!
1&
#27000000000000000
0!
0&
#27500000000000000
1!
b0001000000000000 #
1%
1&
b0001000000000000 (
1*
b110 +
#28000000000000000
0!
0&
#28500000000000000
1!
1&
b111 +
#29000000000000000
0!
0&
#29500000000000000
1!
1&
#30000000000000000
0!
0&
#30500000000000000
1!
1&
#31000000000000000
0!
0&
#31500000000000000
1!
1&
#32000000000000000
0!
0&
#32500000000000000
1!
1"
0$
0%
1&
1'
0)
0*
b000 +
#33000000000000000
0!
0&
#33500000000000000
1!
0"
1$
1%
1&
0'
1)
1*
b110 +
#34000000000000000
0!
0&
#34500000000000000
1!
1&
b111 +
#35000000000000000
0!
0&
#35500000000000000
1!
1&
#36000000000000000
0!
0&
#36500000000000000
1!
1&
#37000000000000000
0!
0&
#37500000000000000
1!
b0001100000000000 #
0$
0%
1&
b0001100000000000 (
0)
0*
b000 +
#38000000000000000
0!
0&
#38500000000000000
1!
1&
#39000000000000000
0!
0&
#39500000000000000
1!
1&
#40000000000000000
0!
0&
#40500000000000000
1!
1&
#41000000000000000
0!
0&
#41500000000000000
1!
1&
#42000000000000000
0!
0&
#42500000000000000
1!
1&
#43000000000000000
0!
b0001001100000000 #
0&
b0001001100000000 (
#43500000000000000
1!
1$
1&
1)
b100 +
#44000000000000000
0!
0&
#44500000000000000
1!
1&
b101 +
#45000000000000000
0!
0&
#45500000000000000
1!
1&
#46000000000000000
0!
0&
#46500000000000000
1!
1&
#47000000000000000
0!
0&
#47500000000000000
1!
1&
#48000000000000000
0!
b0001000000000000 #
0&
b0001000000000000 (
#48500000000000000
1!
1%
1&
1*
b110 +
#49000000000000000
0!
0&
#49500000000000000
1!
1&
b111 +
#50000000000000000
0!
b0001001100000000 #
0&
b0001001100000000 (
#50500000000000000
1!
1&
#51000000000000000
0!
0&
#51500000000000000
1!
1&
#52000000000000000
0!
0&
#52500000000000000
1!
1&
#53000000000000000
0!
0&
#53500000000000000
1!
1&
#54000000000000000
0!
0&
#54500000000000000
1!
1&
#55000000000000000
0!
b0001100000000000 #
0&
b0001100000000000 (
#55500000000000000
1!
0$
0%
1&
0)
0*
b000 +
#56000000000000000
0!
0&
#56500000000000000
1!
1&
#57000000000000000
0!
0&
#57500000000000000
1!
1&
#58000000000000000
0!
0&
#58500000000000000
1!
1&
#59000000000000000
0!
0&
#59500000000000000
1!
1&
#60000000000000000
0!
b0001001000000001 #
0&
b0001001000000001 (
#60500000000000000
1!
1$
1&
1)
b100 +
#61000000000000000
0!
0&
#61500000000000000
1!
1&
b101 +
#62000000000000000
0!
0&
#62500000000000000
1!
1&
#63000000000000000
0!
0&
#63500000000000000
1!
1&
#64000000000000000
0!
0&
#64500000000000000
1!
1&
#65000000000000000
0!
b0001000000000000 #
0&
b0001000000000000 (
#65500000000000000
1!
1%
1&
1*
b110 +
#66000000000000000
0!
0&
#66500000000000000
1!
1&
b111 +
#67000000000000000
0!
0&
#67500000000000000
1!
1&
#68000000000000000
0!
0&
#68500000000000000
1!
1&
#69000000000000000
0!
0&
#69500000000000000
1!
1&
#70000000000000000
0!
1"
0$
0%
0&
1'
0)
0*
b000 +
#70500000000000000
1!
1&
#71000000000000000
0!
0"
0&
0'
#71500000000000000
1!
1$
1%
1&
1)
1*
b110 +
#72000000000000000
0!
0&
#72500000000000000
1!
1&
b111 +
#73000000000000000
0!
0&
#73500000000000000
1!
1&
#74000000000000000
0!
0&
#74500000000000000
1!
1&
#75000000000000000
0!
b0001100000000000 #
0&
b0001100000000000 (
#75500000000000000
1!
0$
0%
1&
0)
0*
b000 +
